…
```r
library(dplyr)

params <- tribble(
 ~sim, ~n, ~mean, ~sd,
    1,  4,     1,   5,
    2,  7,     2,   10,
    3,  10,   -1,   25
)
```

Теперь сгенерируйте согласно этим параметрам таблицу содержащую в столбце `sim` номер строки таблицы параметров, а в столбце `val` сами значения случайных распределений. Для воспроизводимости результатов установите счётчик генерации случайных чисел в позиции 400 (`set.seed(400)`). Тогда итоговый результат будет иметь следующий вид:

```
# A tibble: 21 x 2
# Groups:   sim [3]
     sim   val
   <dbl> <dbl>
 1     1 -1.75
 2     1 -3.70
 3     1  2.27
 4     1 13.2 
 5     2  9.87
 6     2 -5.14
 7     2 -8.09
 8     2 -3.57
 9     2  6.77
10     2 29.4 
# ... with 11 more rows
```
